<?xml version="1.0" encoding="UTF-8" standalone="no"?>
<!-- Created with Inkscape (http://www.inkscape.org/) -->

<svg
   viewBox="0 0 108.00101 167.41786"
   version="1.1"
   id="svg3975"
   xmlns="http://www.w3.org/2000/svg"
   xmlns:svg="http://www.w3.org/2000/svg">
  <defs
     id="defs3972" />
  <path
     style="fill:#bafcd3;fill-opacity:1;fill-rule:evenodd;stroke:none;stroke-width:0.352778"
     d="m 61.368023,239.91253 32.620937,5.31234 0.318311,-8.20346 3.037205,-5.08497 3.549824,-3.54157 4.23884,-2.9724 4.74045,-0.25908 3.59117,-1.60818 5.29442,-0.92604 9.05097,5.55488 5.39778,6.49746 5.73677,4.19198 8.44462,-1.07212 3.48918,-16.78037 -2.93521,-4.72803 -1.69362,-4.74324 1.32429,-5.79879 1.65227,-10.55991 2.12355,-1.98158 2.79192,0.21219 4.58611,-20.32331 -2.6362,-3.86539 -0.97565,-4.40284 1.72392,-3.81716 4.16581,-0.63388 5.11115,-21.11706 -5.67474,-3.15158 -3.31421,-3.33072 2.39092,-3.10334 9.85022,-31.076141 -4.16581,-2.874588 -1.9196,-5.587944 -1.17962,-0.146071 -1.17959,0.551215 -10.51856,5.702321 -7.73631,2.112533 -3.9412,0.778591 -3.17087,-2.858051 -1.49793,-4.3546 -0.89295,-3.848862 -9.5939,-2.014689 -10.73354,-8.25307 -5.37711,13.24019 -1.06659,10.314616 -4.7625,11.07943 -4.309147,4.15891 -16.120286,37.16708 8.003646,15.83916 4.083121,4.56544 3.315581,5.18142 -1.642639,8.31783 -4.412473,7.09828 -8.259974,4.12584 -13.216749,-0.53605 z m 0,0"
     id="path1219"
     transform="translate(-61.368022,-77.807005)" />
</svg>
