<?xml version="1.0" encoding="UTF-8" standalone="no"?>
<!-- Created with Inkscape (http://www.inkscape.org/) -->

<svg
   width="2.7093999mm"
   height="1.9175971mm"
   viewBox="0 0 2.7093999 1.9175971"
   version="1.1"
   id="svg1"
   inkscape:version="1.3 (1:1.3+202307231459+0e150ed6c4)"
   sodipodi:docname="cave7.svg"
   xmlns:inkscape="http://www.inkscape.org/namespaces/inkscape"
   xmlns:sodipodi="http://sodipodi.sourceforge.net/DTD/sodipodi-0.dtd"
   xmlns="http://www.w3.org/2000/svg"
   xmlns:svg="http://www.w3.org/2000/svg">
  <sodipodi:namedview
     id="namedview1"
     pagecolor="#ffffff"
     bordercolor="#666666"
     borderopacity="1.0"
     inkscape:showpageshadow="2"
     inkscape:pageopacity="0.0"
     inkscape:pagecheckerboard="0"
     inkscape:deskcolor="#d1d1d1"
     inkscape:document-units="mm"
     inkscape:zoom="12.337143"
     inkscape:cx="10.415702"
     inkscape:cy="-3.68805"
     inkscape:window-width="913"
     inkscape:window-height="1203"
     inkscape:window-x="26"
     inkscape:window-y="23"
     inkscape:window-maximized="0"
     inkscape:current-layer="layer1" />
  <defs
     id="defs1" />
  <g
     inkscape:label="Calque 1"
     inkscape:groupmode="layer"
     id="layer1"
     transform="translate(-106.09793,-122.76625)">
    <path
       id="path36"
       style="fill:#000000;stroke-width:0.0846667"
       d="m 107.45806,122.76691 c -0.0995,0.008 -0.33089,0.11703 -0.55553,0.26613 -0.47566,0.31573 -0.8046,0.80443 -0.8046,1.19528 0,0.16094 0.0597,0.19374 0.44494,0.24184 0.24487,0.0306 0.50214,0.0915 0.57154,0.1354 0.15331,0.0969 0.25288,0.10452 0.25373,0.0191 0.002,-0.18003 0.49725,-0.33224 0.95756,-0.29404 0.47069,0.039 0.48163,0.0348 0.48163,-0.17777 0,-0.16323 -0.0838,-0.26743 -0.33642,-0.41806 -0.185,-0.11032 -0.4535,-0.36144 -0.59634,-0.55862 -0.14283,-0.19718 -0.31491,-0.37976 -0.38241,-0.40566 -0.008,-0.003 -0.0199,-0.005 -0.0341,-0.004 z m -0.0341,0.24391 c 0.006,4e-5 0.0109,6.6e-4 0.0155,0.002 0.0738,0.0142 0.23932,0.18263 0.36794,0.37414 0.12863,0.19151 0.3492,0.39593 0.48989,0.45423 0.3757,0.15565 0.31221,0.25477 -0.16278,0.25477 -0.23008,0 -0.43919,0.034 -0.46509,0.076 -0.0936,0.15146 -0.52021,0.23053 -0.88832,0.16433 -0.49277,-0.0886 -0.53967,-0.14972 -0.41082,-0.53795 0.0831,-0.25047 0.20491,-0.38312 0.52193,-0.56895 0.21311,-0.12491 0.44304,-0.21859 0.53175,-0.21808 z" />
  </g>
</svg>
