<?xml version="1.0" encoding="UTF-8" standalone="no"?>
<!-- Created with Inkscape (http://www.inkscape.org/) -->

<svg
   width="3.8444846mm"
   height="1.5053697mm"
   viewBox="0 0 3.8444846 1.5053698"
   version="1.1"
   id="svg1"
   inkscape:version="1.3 (1:1.3+202307231459+0e150ed6c4)"
   sodipodi:docname="cave24.svg"
   xmlns:inkscape="http://www.inkscape.org/namespaces/inkscape"
   xmlns:sodipodi="http://sodipodi.sourceforge.net/DTD/sodipodi-0.dtd"
   xmlns="http://www.w3.org/2000/svg"
   xmlns:svg="http://www.w3.org/2000/svg">
  <sodipodi:namedview
     id="namedview1"
     pagecolor="#ffffff"
     bordercolor="#666666"
     borderopacity="1.0"
     inkscape:showpageshadow="2"
     inkscape:pageopacity="0.0"
     inkscape:pagecheckerboard="0"
     inkscape:deskcolor="#d1d1d1"
     inkscape:document-units="mm"
     inkscape:zoom="12.337143"
     inkscape:cx="19.331867"
     inkscape:cy="13.982168"
     inkscape:window-width="913"
     inkscape:window-height="1203"
     inkscape:window-x="26"
     inkscape:window-y="23"
     inkscape:window-maximized="0"
     inkscape:current-layer="layer1" />
  <defs
     id="defs1" />
  <g
     inkscape:label="Calque 1"
     inkscape:groupmode="layer"
     id="layer1"
     transform="translate(-97.679515,-124.78008)">
    <path
       id="path134"
       style="fill:#000000;stroke-width:0.0846667"
       d="m 99.91996,124.78041 c -0.16525,0.005 -0.37711,0.0564 -0.74621,0.15864 -0.33608,0.0931 -0.68623,0.1695 -0.77773,0.1695 -0.27157,0 -0.57262,0.17388 -0.66972,0.38706 -0.11782,0.25859 -0.084,0.27823 0.96118,0.55707 0.87792,0.23423 1.70143,0.29747 2.12545,0.1633 0.135,-0.0427 0.34995,-0.10068 0.47801,-0.12868 0.12806,-0.028 0.23306,-0.10076 0.23306,-0.16226 0,-0.15042 -0.78059,-0.85051 -1.13688,-1.01958 -0.1832,-0.0869 -0.30191,-0.12964 -0.46716,-0.12505 z m 0.24753,0.24339 c 0.0838,0 0.23419,0.0668 0.33435,0.14832 0.18213,0.14816 0.18215,0.14818 -0.0734,0.55035 -0.22439,0.35316 -0.29134,0.40204 -0.54881,0.40204 -0.16126,0 -0.3179,-0.0402 -0.3483,-0.0894 -0.14735,-0.23839 0.33882,-1.01131 0.63614,-1.01131 z m -0.59738,0.0212 c 0.0347,-8.8e-4 0.0607,0.005 0.0749,0.0191 0.0196,0.0197 -0.0766,0.2188 -0.21394,0.44235 -0.24781,0.40333 -0.35247,0.46739 -0.63769,0.39119 -0.19544,-0.0522 -0.18745,-0.20868 0.0248,-0.47852 0.13065,-0.1661 0.56474,-0.36939 0.75189,-0.37414 z m -1.20768,0.31729 c 0.17806,0 0.19217,0.0219 0.11317,0.1695 -0.0879,0.16412 -0.33719,0.22711 -0.45061,0.11369 -0.097,-0.097 0.12491,-0.28319 0.33744,-0.28319 z m 2.48254,0.18346 c 0.0482,-0.002 0.0952,0.042 0.18913,0.1359 0.18154,0.18153 0.18118,0.18146 -0.0512,0.26976 -0.47606,0.18099 -0.64599,0.0155 -0.30282,-0.29508 0.0787,-0.0712 0.12229,-0.10885 0.16485,-0.11058 z"
       sodipodi:nodetypes="ssscssssssscsscssssssssssssscss" />
  </g>
</svg>
