<?xml version="1.0" encoding="UTF-8" standalone="no"?>
<!-- Created with Inkscape (http://www.inkscape.org/) -->

<svg
   width="1.3305647mm"
   height="4.5755653mm"
   viewBox="0 0 1.3305647 4.5755654"
   version="1.1"
   id="svg1"
   inkscape:version="1.3 (1:1.3+202307231459+0e150ed6c4)"
   sodipodi:docname="cave11.svg"
   xmlns:inkscape="http://www.inkscape.org/namespaces/inkscape"
   xmlns:sodipodi="http://sodipodi.sourceforge.net/DTD/sodipodi-0.dtd"
   xmlns="http://www.w3.org/2000/svg"
   xmlns:svg="http://www.w3.org/2000/svg">
  <sodipodi:namedview
     id="namedview1"
     pagecolor="#ffffff"
     bordercolor="#666666"
     borderopacity="1.0"
     inkscape:showpageshadow="2"
     inkscape:pageopacity="0.0"
     inkscape:pagecheckerboard="0"
     inkscape:deskcolor="#d1d1d1"
     inkscape:document-units="mm"
     inkscape:zoom="12.337143"
     inkscape:cx="24.357341"
     inkscape:cy="-3.68805"
     inkscape:window-width="913"
     inkscape:window-height="1203"
     inkscape:window-x="26"
     inkscape:window-y="23"
     inkscape:window-maximized="0"
     inkscape:current-layer="layer1" />
  <defs
     id="defs1" />
  <g
     inkscape:label="Calque 1"
     inkscape:groupmode="layer"
     id="layer1"
     transform="translate(-101.60002,-122.76599)">
    <path
       id="path16"
       style="fill:#000000;stroke-width:0.0846667"
       d="m 102.65422,122.76645 c -0.0545,0.008 -0.13045,0.10801 -0.23151,0.29869 -0.092,0.17348 -0.1759,0.64087 -0.231,1.28209 -0.0477,0.5551 -0.11936,1.05041 -0.15916,1.10071 -0.0398,0.0503 -0.10014,0.28144 -0.13384,0.51366 -0.0337,0.23222 -0.11453,0.5258 -0.17983,0.65216 -0.0653,0.12636 -0.11886,0.30767 -0.11886,0.40307 0,0.14384 0.0546,0.17367 0.31781,0.17467 0.17463,7e-4 0.37452,0.0392 0.44442,0.0853 0.0699,0.0461 0.2031,0.0739 0.2961,0.062 0.13835,-0.0177 0.18167,-0.11337 0.23927,-0.52762 0.0388,-0.27848 0.0441,-0.67888 0.0119,-0.88935 -0.0321,-0.21047 -0.0722,-0.80139 -0.0894,-1.31362 -0.0172,-0.51224 -0.0391,-1.14633 -0.0491,-1.40921 -0.0112,-0.2994 -0.0467,-0.44246 -0.11679,-0.43253 z m -0.17053,1.09554 c 0.001,-3.9e-4 0.003,-2.9e-4 0.004,0 0.15052,0.0288 0.21446,0.50618 0.14056,1.04644 -0.052,0.38037 -0.0409,0.6351 0.0393,0.90176 0.101,0.33564 0.0981,0.37611 -0.0331,0.41651 -0.0799,0.0246 -0.21159,0.0798 -0.29249,0.12299 h -5.1e-4 c -0.0809,0.0432 -0.16432,0.0786 -0.18552,0.0786 -0.15246,0 -0.15599,-0.64736 -0.005,-0.87902 0.0644,-0.0987 0.1476,-0.52193 0.185,-0.94103 0.0362,-0.406 0.10152,-0.73429 0.14728,-0.7462 z m 0.10697,2.7714 c 0.008,-0.001 0.0163,10e-4 0.0253,0.007 0.0466,0.0288 0.0848,0.12613 0.0848,0.21653 0,0.0904 -0.0382,0.16433 -0.0848,0.16433 -0.0466,0 -0.0847,-0.0974 -0.0847,-0.21653 0,-0.0999 0.0246,-0.16586 0.0594,-0.17105 z m -0.57464,0.0708 c 0.0406,-0.003 0.0801,0.0179 0.13332,0.062 0.0694,0.0575 0.10508,0.13854 0.0796,0.17984 -0.0602,0.0975 -0.4594,0.0978 -0.4594,5.1e-4 0,-0.0409 0.0572,-0.12132 0.12712,-0.17932 0.0473,-0.0393 0.0836,-0.0605 0.11938,-0.063 z" />
  </g>
</svg>
