<?xml version="1.0" encoding="UTF-8" standalone="no"?>
<!-- Created with Inkscape (http://www.inkscape.org/) -->

<svg
   viewBox="0 0 52.5487 32.669205"
   version="1.1"
   id="svg3975"
   xmlns="http://www.w3.org/2000/svg"
   xmlns:svg="http://www.w3.org/2000/svg">
  <path
     style="fill:#e9c535;stroke:#e9c535;stroke-width:6;stroke-linecap:round;stroke-linejoin:round;stroke-miterlimit:4;stroke-opacity:1"
     d="m 196.08203,125.11328 6.87109,14.86719 9.6875,-4.71875 0.32813,-0.125 0.34375,-0.0664 0.34766,-0.004 0.34375,0.0547 0.33203,0.11328 0.30468,0.17188 0.27344,0.22266 0.22656,0.26171 0.17969,0.30079 20.46875,42.60156 0.1211,0.33203 0.0664,0.34375 0.004,0.35156 -0.0625,0.34766 -0.11719,0.33203 -0.17578,0.30469 -0.22266,0.26953 -0.26953,0.22656 -0.30469,0.17578 -10.14062,4.69922 -0.50391,-1.37891 9.97657,-4.69531 0.32812,-0.12109 0.34766,-0.0625 h 0.34765 l 0.34766,0.0586 0.32812,0.1211 0.30469,0.17578 0.26563,0.22656 0.22656,0.26953 0.17187,0.30469 2.89454,6.29687 2.39453,-0.90625 7.95312,-3.16406 2.17969,-0.87891 0.043,-0.0195 1.3125,-0.49609 9.40625,-3.71484 0.375,-0.10547 0.38672,-0.0352 0.38672,0.043 0.37109,0.11719 0.33984,0.1875 0.30078,0.25 0.24219,0.30078 0.1836,0.34375 9.07421,22.13672 4.75,-2.3086 0.23047,-0.0937 0.23828,-0.0664 26.62891,-5.52735 0.35938,-0.043 0.36718,0.0234 3.98047,0.64453 0.71485,-5.95312 0.0742,-0.35156 0.13282,-0.32813 0.1914,-0.30078 0.24219,-0.26172 0.28516,-0.21484 0.3164,-0.16407 0.33985,-0.10156 1.36718,-0.28125 0.32032,-0.0391 0.32422,0.0156 5.08593,0.625 0.26953,0.0508 0.26172,0.0898 0.2461,0.125 1.30468,0.77734 3.60547,0.88282 1.23438,-0.17188 -4.69922,-0.92969 -0.35156,-0.10156 -0.32032,-0.16406 -0.28906,-0.22266 -0.24609,-0.26562 -0.19141,-0.3086 -0.13281,-0.33593 -0.0703,-0.35547 -0.82813,-7.9375 -0.004,-0.375 0.0664,-0.36719 0.13281,-0.35156 0.19532,-0.31641 0.2539,-0.27734 0.29688,-0.22266 0.33594,-0.16797 0.36328,-0.0977 4.17968,-0.7461 3.5,-2.40234 -1.11718,-8.98047 -0.0156,-0.35547 0.0508,-0.35156 0.11328,-0.33985 0.17188,-0.3125 0.22266,-0.27734 0.26953,-0.23047 0.30468,-0.18359 0.33204,-0.125 0.35156,-0.0625 8.62109,-0.78906 -3.08984,-28.12891 -2.58594,-6.24609 -1.03516,-1.19532 -22.76953,-2.69531 -0.0273,-0.004 -20.07422,-2.64063 -37.32031,-4.76953 -12.96875,0.375 z m 0,0"
     id="path263816"
     transform="matrix(0.35277777,0,0,0.35277777,-68.115093,-39.448989)" />
</svg>
