<?xml version="1.0" encoding="UTF-8" standalone="no"?>
<svg
   viewBox="0 0 907.92578 786.99609"
   version="1.2"
   id="svg99298"
   xmlns:xlink="http://www.w3.org/1999/xlink"
   xmlns="http://www.w3.org/2000/svg"
   xmlns:svg="http://www.w3.org/2000/svg">

  <path
     style="fill:#e9c535;stroke:none;stroke-width:1;stroke-linecap:butt;stroke-linejoin:miter;stroke-miterlimit:4;stroke-opacity:1"
     d="m 334.55582,56.298815 32.6875,49.636715 2.62109,11.23438 1.04688,12.61719 0.34765,11.51171 1.51172,11.97266 2.96485,12.61328 2.79297,12.80078 6.16406,13.72266 6.98047,10.12891 7.5039,10.77734 405.51172,582.74219 17.44922,17.86328 10.58594,7.18359 9.13281,3.13281 11.80469,2.85157 11.86719,-0.1836 11.98046,-1.28906 10.00391,-3.12891 12.03906,-6.72265 250.80079,-181.78516 72.0039,-52.21484 20.125,-14.55078 -46.0078,-66.30469 -19.7734,-15.00781 -23.3828,-2.94922 -18.8438,-4.69531 -17.2734,-5.25 -19.8945,-7.55079 -18.086,-8.28906 -24.9531,-13.44531 -30.5352,-20.44141 -21.4062,-17.03906 -23.90239,-23.57422 -20.35938,-22.3789 -18.90234,-26.42969 -12.38672,-20.25781 -8.37891,-13.72266 -8.89843,-14.55078 -4.01172,-6.53906 -8.31641,-13.62891 -14.48437,-23.66406 -6.45704,-10.5 -6.28125,-10.22266 -8.54687,-14.55078 -7.79688,-13.16797 -5.75781,-9.85547 -7.55859,-11.69531 -6.86328,-10.67969 -12.79688,-15.3789 -14.83203,-10.31641 -12.96875,-4.97266 -14.94922,-2.30078 -13.49609,0.27735 -15.76172,2.94531 -12.91016,5.61719 -10.12109,7.08984 -7.50391,7.18359 -3.72265,3.59375 -13.02735,14.45703 -11.57422,12.80079 -6.98046,7.82812 -11.05079,10.86719 -22.16015,21.91406 -14.13281,11.51172 -14.89063,9.02734 -16.28516,8.19532 -14.01562,5.71093 -12.50781,3.3125 -14.19141,0.3711 -12.96875,-1.56641 -12.67969,-3.41016 -15.41406,-7.64062 -11.10937,-7.18359 -9.94532,-8.75 -10.64453,-10.12891 -9.36328,-11.41797 -8.31641,-13.17187 -7.32812,-14.17969 -8.66797,-17.77344 -7.38672,-14.91797 -6.6289,-13.44531 -4.12891,-9.48438 -3.08594,-12.43359 -1.91797,-16.20703 0.64063,-18.51172 2.84765,-14.82812 -5.23437,-7.734379 -5.46484,-8.105469 -28.67579,19.156248 -4.88671,-0.46093 -6.39844,-2.11719 -8.48828,-4.050784 -6.63282,-4.421875 -12.85546,-17.679687 -11.45704,7.734375 z m 46.58984,94.023435 21.17188,-13.07812 7.15234,11.60547 -21.16797,13.07812 z m 44.96094,64.00391 21.17188,-13.07813 7.15234,11.51172 -21.17188,13.07813 z m 112.19531,94.20703 21.17188,-13.07813 7.15234,11.60547 -21.16797,13.07813 z m 34.19922,22.01172 21.17188,-13.07813 7.15625,11.51172 -21.11328,13.07422 z m 8.20313,-28.73438 21.11328,-13.07422 7.15234,11.60157 -21.11328,13.07812 z m 14.94531,65.57032 76.19531,-48.99219 7.85156,12.15625 -76.25,48.99219 z m 26,138.87109 76.30859,-50.92578 9.53907,14.36328 -76.3086,50.83594 z m 22.97656,-114.83594 21.05469,-13.72265 12.50391,19.15625 -21.05469,13.71875 z m 47.16797,175.0625 26.64063,-18.78906 46.12109,63.63672 -26.63672,18.78515 z m 11.69141,-137.85937 21.17187,-13.53907 9.36328,14.64454 -21.17187,13.53515 z m 0.23437,-139.33203 42.57422,-26.79688 9.42188,14.64063 -42.63282,26.79687 z m 26.11328,236.30078 46.41407,-32.96485 3.66406,5.80078 5.46875,8.65625 32.85937,-25.14062 -5.64062,-8.10547 19.89062,-14.08984 5.1211,7.27734 34.83984,-25.05078 -6.10937,-8.01172 -2.61719,-3.5 40.36719,-28.63672 8.14062,11.51172 13.72656,19.33594 6.7461,9.48828 61.36328,86.46875 6.45706,9.02734 3.2578,4.60157 51.7617,-36.46485 39.1446,55.52735 -51.6485,36.28515 22.4532,31.67969 9.4218,13.26172 -40.0742,28.36328 -4.6562,-6.72266 -4.6524,-6.72265 -34.95314,24.67968 5.34765,7.55079 -22.73828,16.11328 -5.23828,-7.45703 -32.91797,23.20703 3.89844,5.98437 5.05859,7.82813 -43.33203,30.85156 -9.65625,-13.63281 -96.55078,-135.92188 -6.28125,-8.93359 -48.67969,-68.60547 z m 17.04297,-213.92188 21.11328,-13.53906 9.36328,14.55078 -21.11328,13.62891 z m 11.80469,362.83203 26.64062,-18.78515 9.48047,12.89062 -26.64062,18.78906 z m 15.00781,-249.28515 21.11328,-13.53907 9.36328,14.64454 -21.11328,13.53515 z m 5.11719,-187.21875 21.17187,-13.53907 9.36329,14.64454 -21.17188,13.53515 z m 19.07812,490.375 26.63672,-18.78516 9.48047,12.98438 -26.63672,18.69531 z m 42.63282,45.86328 19.77734,-15.01172 9.65234,12.80078 -19.77343,15.00781 z m 75.3789,-6.63281 12.27344,-8.9336 8.43359,11.51172 -12.33203,8.93359 z m 49.14844,-35.26954 12.27344,-8.93359 8.43359,11.51172 -12.33203,8.93359 z m 1.97656,-272.30859 21.17188,-13.53516 9.36323,14.64063 -21.16792,13.53516 z m 48.39454,236.30078 12.3282,-8.92969 8.375,11.60157 -12.3282,8.93359 z m 44.7266,-31.58594 12.3281,-8.93359 8.375,11.51172 -12.3281,9.02734 z m 54.7305,-37.9414 12.332,-8.9336 8.375,11.60547 -12.332,8.9336 z m 48.5664,-35.82031 12.3281,-8.9336 8.3789,11.51172 -12.332,9.02344 z m 49.3789,-37.11329 12.332,-8.93359 8.375,11.51172 -12.332,9.02344 z m 0,0"
     id="path96999"
     transform="translate(-334.55582,-40.091784)" />
</svg>
